origination	mutran_contract	KT1WbrHVoKddJoj7P41M4U1CN7FDT9GMGfhX	43500000	37273984
mint	mutran_contract	KT1WbrHVoKddJoj7P41M4U1CN7FDT9GMGfhX	0	37273984	37273984	142345
transfer	mutran_contract	KT1WbrHVoKddJoj7P41M4U1CN7FDT9GMGfhX	1	0	1	1	factor-from	4350000000	4349917058	144056
origination	mutran_contract	KT1TakdKdxArJpXJvFz3x98k2Q2dVvutAvJT	37093420	30868565
mint	mutran_contract	KT1TakdKdxArJpXJvFz3x98k2Q2dVvutAvJT	0	30868565	30868565	142347
transfer	mutran_contract	KT1TakdKdxArJpXJvFz3x98k2Q2dVvutAvJT	1	0	1	11	factor-from	4349917058	4349163423	157678
origination	mutran_contract	KT1MNeSGu1tv4grpVQkyibDYpdLxM3Saba8r	30688001	24463146
mint	mutran_contract	KT1MNeSGu1tv4grpVQkyibDYpdLxM3Saba8r	0	24463146	24463146	142347
transfer	mutran_contract	KT1MNeSGu1tv4grpVQkyibDYpdLxM3Saba8r	1	0	1	21	factor-from	4349163423	4347737936	171300
origination	mutran_contract	KT1DQAF5GW2nLB8GCqzKNzs7Sbn6dEabCZKg	32572838	26347983
mint	mutran_contract	KT1DQAF5GW2nLB8GCqzKNzs7Sbn6dEabCZKg	0	26347983	26347983	142347
transfer	mutran_contract	KT1DQAF5GW2nLB8GCqzKNzs7Sbn6dEabCZKg	1	0	1	31	factor-from	4347737936	4345640596	184922
origination	mutran_contract	KT1Mirz3qCFVvUc9EFhe7GJfLm8EfLKDcK8t	31724661	25499806
mint	mutran_contract	KT1Mirz3qCFVvUc9EFhe7GJfLm8EfLKDcK8t	0	25499806	25499806	142347
transfer	mutran_contract	KT1Mirz3qCFVvUc9EFhe7GJfLm8EfLKDcK8t	1	0	1	41	factor-from	4345640596	4342871404	198545
origination	mutran_contract	KT1P1Jmp6GpEmzqaX2gvRV55PjypQU29oPuG	32106341	25881486
mint	mutran_contract	KT1P1Jmp6GpEmzqaX2gvRV55PjypQU29oPuG	0	25881486	25881486	142347
transfer	mutran_contract	KT1P1Jmp6GpEmzqaX2gvRV55PjypQU29oPuG	1	0	1	51	factor-from	4342871404	4339430360	212168
origination	mutran_contract	KT1Tgb7hJ6m2DnDdok3AYcQpH4mFXJP2xcEQ	31934585	25709730
mint	mutran_contract	KT1Tgb7hJ6m2DnDdok3AYcQpH4mFXJP2xcEQ	0	25709730	25709730	142377
transfer	mutran_contract	KT1Tgb7hJ6m2DnDdok3AYcQpH4mFXJP2xcEQ	1	0	1	61	factor-from	4339430360	4335318460	225822
origination	mutran_contract	KT1GksJQ1Yt3RAPuFhVEDN6h2nT5x8q1x5fr	32012777	25787922
mint	mutran_contract	KT1GksJQ1Yt3RAPuFhVEDN6h2nT5x8q1x5fr	0	25787922	25787922	142377
transfer	mutran_contract	KT1GksJQ1Yt3RAPuFhVEDN6h2nT5x8q1x5fr	1	0	1	71	factor-from	4335318460	4330534708	239446
origination	mutran_contract	KT1PTLpCQAzEYto42p14RpZFxd8FJaXdJ2Yr	31977590	25752735
mint	mutran_contract	KT1PTLpCQAzEYto42p14RpZFxd8FJaXdJ2Yr	0	25752735	25752735	142377
transfer	mutran_contract	KT1PTLpCQAzEYto42p14RpZFxd8FJaXdJ2Yr	1	0	1	81	factor-from	4330534708	4325079104	253070
origination	mutran_contract	KT1Dr1kDjSTqQxybgpPxKar6NtKooWugoSmM	31993424	25768569
mint	mutran_contract	KT1Dr1kDjSTqQxybgpPxKar6NtKooWugoSmM	0	25768569	25768569	142377
transfer	mutran_contract	KT1Dr1kDjSTqQxybgpPxKar6NtKooWugoSmM	1	0	1	91	factor-from	4325079104	4318951647	266695
origination	mutran_contract	KT1BFWBaY4BhjPt9jGGRkH7aWuBW4xDfbXu6	31986299	25761444
mint	mutran_contract	KT1BFWBaY4BhjPt9jGGRkH7aWuBW4xDfbXu6	0	25761444	25761444	142377
transfer	mutran_contract	KT1BFWBaY4BhjPt9jGGRkH7aWuBW4xDfbXu6	1	0	1	101	factor-from	4318951647	4312152338	280319
origination	mutran_contract	KT1D1Hy5ZChsrQci69D9DQ52fouYqeUP1hEG	31989505	25764650
mint	mutran_contract	KT1D1Hy5ZChsrQci69D9DQ52fouYqeUP1hEG	0	25764650	25764650	142377
transfer	mutran_contract	KT1D1Hy5ZChsrQci69D9DQ52fouYqeUP1hEG	1	0	1	111	factor-from	4312152338	4304681176	293944
origination	mutran_contract	KT1L3BxiE4g5qDkxuNmkfsviubEsJ4kx34Wc	31988063	25763208
mint	mutran_contract	KT1L3BxiE4g5qDkxuNmkfsviubEsJ4kx34Wc	0	25763208	25763208	142377
transfer	mutran_contract	KT1L3BxiE4g5qDkxuNmkfsviubEsJ4kx34Wc	1	0	1	121	factor-from	4304681176	4296538162	307568
origination	mutran_contract	KT1NLMEWekN1rLcvMZE4XLFCCMhY4iSXPwhZ	31988712	25763857
mint	mutran_contract	KT1NLMEWekN1rLcvMZE4XLFCCMhY4iSXPwhZ	0	25763857	25763857	142377
transfer	mutran_contract	KT1NLMEWekN1rLcvMZE4XLFCCMhY4iSXPwhZ	1	0	1	131	factor-from	4296538162	4287723295	321194
origination	mutran_contract	KT1RMQskPyRiALosqEWdPzyJMYMgU34xdMtT	31988419	25763564
mint	mutran_contract	KT1RMQskPyRiALosqEWdPzyJMYMgU34xdMtT	0	25763564	25763564	142377
transfer	mutran_contract	KT1RMQskPyRiALosqEWdPzyJMYMgU34xdMtT	1	0	1	141	factor-from	4287723295	4278236576	334819
origination	mutran_contract	KT1GKrV3kdVC9EY7RCjgAFPkNd6LK5d9gpKG	31988551	25763696
mint	mutran_contract	KT1GKrV3kdVC9EY7RCjgAFPkNd6LK5d9gpKG	0	25763696	25763696	142377
transfer	mutran_contract	KT1GKrV3kdVC9EY7RCjgAFPkNd6LK5d9gpKG	1	0	1	151	factor-from	4278236576	4268078004	348445
origination	mutran_contract	KT1FuL2j5cKJLbncuDYw5jHUKX4WAPvT4Yex	31988492	25763637
mint	mutran_contract	KT1FuL2j5cKJLbncuDYw5jHUKX4WAPvT4Yex	0	25763637	25763637	142377
transfer	mutran_contract	KT1FuL2j5cKJLbncuDYw5jHUKX4WAPvT4Yex	1	0	1	161	factor-from	4268078004	4257247579	362071
origination	mutran_contract	KT1ComS7JoyGHiLs9uvAjDNmhtsEX5c5ZJ1m	31988518	25763663
mint	mutran_contract	KT1ComS7JoyGHiLs9uvAjDNmhtsEX5c5ZJ1m	0	25763663	25763663	142377
transfer	mutran_contract	KT1ComS7JoyGHiLs9uvAjDNmhtsEX5c5ZJ1m	1	0	1	171	factor-from	4257247579	4245745302	375697
origination	mutran_contract	KT1S42L5GYFkZ5niZxux8AyaJc27knP1TdTL	31988507	25763652
mint	mutran_contract	KT1S42L5GYFkZ5niZxux8AyaJc27knP1TdTL	0	25763652	25763652	142377
transfer	mutran_contract	KT1S42L5GYFkZ5niZxux8AyaJc27knP1TdTL	1	0	1	181	factor-from	4245745302	4233571172	389322
origination	mutran_contract	KT1FVu8At24SLkSycaJ5vYe8LuzqVY1E2jy7	31988512	25763657
mint	mutran_contract	KT1FVu8At24SLkSycaJ5vYe8LuzqVY1E2jy7	0	25763657	25763657	142377
transfer	mutran_contract	KT1FVu8At24SLkSycaJ5vYe8LuzqVY1E2jy7	1	0	1	191	factor-from	4233571172	4220725190	402948
origination	mutran_contract	KT19BfAkSmWj2by8GWcBRWD2fjEZ3zRm2BnJ	31988509	25763654
mint	mutran_contract	KT19BfAkSmWj2by8GWcBRWD2fjEZ3zRm2BnJ	0	25763654	25763654	142377
transfer	mutran_contract	KT19BfAkSmWj2by8GWcBRWD2fjEZ3zRm2BnJ	1	0	1	201	factor-from	4220725190	4207207355	416574
origination	mutran_contract	KT1PbcKECHZ5k1cbq5qVcRF3nHhZ15Xa18HN	31988511	25761653
mint	mutran_contract	KT1PbcKECHZ5k1cbq5qVcRF3nHhZ15Xa18HN	0	25761653	25761653	142427
transfer	mutran_contract	KT1PbcKECHZ5k1cbq5qVcRF3nHhZ15Xa18HN	1	0	1	211	factor-from	4207207355	4193017663	430250
origination	mutran_contract	KT1FNbc3s5JS1Rbb63cdwoecPjME4ttMZZCU	31989414	25761555
mint	mutran_contract	KT1FNbc3s5JS1Rbb63cdwoecPjME4ttMZZCU	0	25761555	25761555	142452
transfer	mutran_contract	KT1FNbc3s5JS1Rbb63cdwoecPjME4ttMZZCU	1	0	1	221	factor-from	4193017663	4178156115	443901
origination	mutran_contract	KT1QYvMFrosJ8hukSrXXTrzo6Vj31XFVvETh	31989459	25761600
mint	mutran_contract	KT1QYvMFrosJ8hukSrXXTrzo6Vj31XFVvETh	0	25761600	25761600	142452
transfer	mutran_contract	KT1QYvMFrosJ8hukSrXXTrzo6Vj31XFVvETh	1	0	1	231	factor-from	4178156115	4162622715	457526
origination	mutran_contract	KT1HahrBjDXr1jaAjWexCCup5dj4EVp6hUFQ	31989439	25761580
mint	mutran_contract	KT1HahrBjDXr1jaAjWexCCup5dj4EVp6hUFQ	0	25761580	25761580	142452
transfer	mutran_contract	KT1HahrBjDXr1jaAjWexCCup5dj4EVp6hUFQ	1	0	1	241	factor-from	4162622715	4146417462	471152
origination	mutran_contract	KT1Vg8rkyhreqBaCUet4DetenH4GNLhcoi1e	31989448	25761589
mint	mutran_contract	KT1Vg8rkyhreqBaCUet4DetenH4GNLhcoi1e	0	25761589	25761589	142452
transfer	mutran_contract	KT1Vg8rkyhreqBaCUet4DetenH4GNLhcoi1e	1	0	1	251	factor-from	4146417462	4129540356	484778
origination	mutran_contract	KT1QQuwz95gLZd1kY7k7tDproqwmRwzuh7c2	31989444	25761585
mint	mutran_contract	KT1QQuwz95gLZd1kY7k7tDproqwmRwzuh7c2	0	25761585	25761585	142452
transfer	mutran_contract	KT1QQuwz95gLZd1kY7k7tDproqwmRwzuh7c2	1	0	1	261	factor-from	4129540356	4111991397	498404
origination	mutran_contract	KT1DGBRHF7bZbenMdXucv15CsgdtEtfazK5i	31989445	25761586
mint	mutran_contract	KT1DGBRHF7bZbenMdXucv15CsgdtEtfazK5i	0	25761586	25761586	142452
transfer	mutran_contract	KT1DGBRHF7bZbenMdXucv15CsgdtEtfazK5i	1	0	1	271	factor-from	4111991397	4093770585	512031
origination	mutran_contract	KT1W3ePq3yHmDCsTmLzMEDkQDRcsSDtLLzUq	31989445	25761586
mint	mutran_contract	KT1W3ePq3yHmDCsTmLzMEDkQDRcsSDtLLzUq	0	25761586	25761586	142452
transfer	mutran_contract	KT1W3ePq3yHmDCsTmLzMEDkQDRcsSDtLLzUq	1	0	1	281	factor-from	4093770585	4074877921	525658
origination	mutran_contract	KT1UsYRCmrRX6rxpfdhFSoUpodkWTy2BdtCZ	31989445	25761586
mint	mutran_contract	KT1UsYRCmrRX6rxpfdhFSoUpodkWTy2BdtCZ	0	25761586	25761586	142452
transfer	mutran_contract	KT1UsYRCmrRX6rxpfdhFSoUpodkWTy2BdtCZ	1	0	1	291	factor-from	4074877921	4055313404	539286
origination	mutran_contract	KT1UWSpXnbiT3dsaBLydLuv86YmADuEAJy6a	31989445	25761586
mint	mutran_contract	KT1UWSpXnbiT3dsaBLydLuv86YmADuEAJy6a	0	25761586	25761586	142452
transfer	mutran_contract	KT1UWSpXnbiT3dsaBLydLuv86YmADuEAJy6a	1	0	1	301	factor-from	4055313404	4035077034	552913
origination	mutran_contract	KT1W2rviXwFSGjMLF33uaKwKD6CqKUoeEpVH	31989445	25761586
mint	mutran_contract	KT1W2rviXwFSGjMLF33uaKwKD6CqKUoeEpVH	0	25761586	25761586	142452
transfer	mutran_contract	KT1W2rviXwFSGjMLF33uaKwKD6CqKUoeEpVH	1	0	1	311	factor-from	4035077034	4014168812	566540
origination	mutran_contract	KT1MZphDPH4J3TUnf2o3n46HE3Pjh6MkzTQp	31989445	25761586
mint	mutran_contract	KT1MZphDPH4J3TUnf2o3n46HE3Pjh6MkzTQp	0	25761586	25761586	142452
transfer	mutran_contract	KT1MZphDPH4J3TUnf2o3n46HE3Pjh6MkzTQp	1	0	1	321	factor-from	4014168812	3992588737	580167
origination	mutran_contract	KT18ghbbRQaUD7sTzVR5PbpnCx6PiDJXRkYN	31989445	25761586
mint	mutran_contract	KT18ghbbRQaUD7sTzVR5PbpnCx6PiDJXRkYN	0	25761586	25761586	142452
failed-transfer	mutran_contract	KT18ghbbRQaUD7sTzVR5PbpnCx6PiDJXRkYN	1	0	1	331	factor-from	oversized-operation
origination	mutran_contract	KT19VrraSeTctWKD7WZh8aMRgUc2Dwt6MGoo	31989445	25761586
mint	mutran_contract	KT19VrraSeTctWKD7WZh8aMRgUc2Dwt6MGoo	0	25761586	25761586	142452
failed-transfer	mutran_contract	KT19VrraSeTctWKD7WZh8aMRgUc2Dwt6MGoo	1	0	1	341	factor-from	oversized-operation
origination	lzep2_mutran_contract	KT1EZAa6zpFcQAJK9KfmNmE7ykzB5df2PzGa	31989445	22837048
mint	lzep2_mutran_contract	KT1EZAa6zpFcQAJK9KfmNmE7ykzB5df2PzGa	0	22837048	22837048	120850
transfer	lzep2_mutran_contract	KT1EZAa6zpFcQAJK9KfmNmE7ykzB5df2PzGa	1	0	1	1	factor-from	3992588737	3992508812	125493
origination	lzep2_mutran_contract	KT1F52UenDUo98kbNTGgevVc2NmPHZCtTgS5	33303614	24151217
mint	lzep2_mutran_contract	KT1F52UenDUo98kbNTGgevVc2NmPHZCtTgS5	0	24151217	24151217	120850
transfer	lzep2_mutran_contract	KT1F52UenDUo98kbNTGgevVc2NmPHZCtTgS5	1	0	1	11	factor-from	3992508812	3991757034	139113
origination	lzep2_mutran_contract	KT1V8wk1GxFmdRXKqaoWmAaSPakLDFgVRRLG	32712238	23559841
mint	lzep2_mutran_contract	KT1V8wk1GxFmdRXKqaoWmAaSPakLDFgVRRLG	0	23559841	23559841	120850
transfer	lzep2_mutran_contract	KT1V8wk1GxFmdRXKqaoWmAaSPakLDFgVRRLG	1	0	1	21	factor-from	3991757034	3990333403	152734
origination	lzep2_mutran_contract	KT1ECZ6dKeQ9Jo1aNgjqEtRwgTViz6jhqsAd	32978357	23825960
mint	lzep2_mutran_contract	KT1ECZ6dKeQ9Jo1aNgjqEtRwgTViz6jhqsAd	0	23825960	23825960	120850
transfer	lzep2_mutran_contract	KT1ECZ6dKeQ9Jo1aNgjqEtRwgTViz6jhqsAd	1	0	1	31	factor-from	3990333403	3988237920	166357
origination	lzep2_mutran_contract	KT1Ft7Wtc6NnyRYUKeGUnTB87yTVTyEnx3xt	32858604	23706207
mint	lzep2_mutran_contract	KT1Ft7Wtc6NnyRYUKeGUnTB87yTVTyEnx3xt	0	23706207	23706207	120850
transfer	lzep2_mutran_contract	KT1Ft7Wtc6NnyRYUKeGUnTB87yTVTyEnx3xt	1	0	1	41	factor-from	3988237920	3985470585	179980
origination	lzep2_mutran_contract	KT1TxeKuWFy91pVKQnqnGTLE6dLAB2dcNXnK	32912493	23760096
mint	lzep2_mutran_contract	KT1TxeKuWFy91pVKQnqnGTLE6dLAB2dcNXnK	0	23760096	23760096	120850
transfer	lzep2_mutran_contract	KT1TxeKuWFy91pVKQnqnGTLE6dLAB2dcNXnK	1	0	1	51	factor-from	3985470585	3982031397	193603
origination	lzep2_mutran_contract	KT1Di45eSm8fGSEQwBQXJF8rXsQ5G8n5hEHA	32888243	23735846
mint	lzep2_mutran_contract	KT1Di45eSm8fGSEQwBQXJF8rXsQ5G8n5hEHA	0	23735846	23735846	120880
transfer	lzep2_mutran_contract	KT1Di45eSm8fGSEQwBQXJF8rXsQ5G8n5hEHA	1	0	1	61	factor-from	3982031397	3977921354	207256
origination	lzep2_mutran_contract	KT1DpjqsRZaZ5D3fDCw8XzLr1NcxxqoxhkQt	32900057	23747660
mint	lzep2_mutran_contract	KT1DpjqsRZaZ5D3fDCw8XzLr1NcxxqoxhkQt	0	23747660	23747660	120880
transfer	lzep2_mutran_contract	KT1DpjqsRZaZ5D3fDCw8XzLr1NcxxqoxhkQt	1	0	1	71	factor-from	3977921354	3973139458	220881
origination	lzep2_mutran_contract	KT1FRwz8GxaVM5rVUp5vVV2vFb4fHyTdzUH4	32894741	23742344
mint	lzep2_mutran_contract	KT1FRwz8GxaVM5rVUp5vVV2vFb4fHyTdzUH4	0	23742344	23742344	120880
transfer	lzep2_mutran_contract	KT1FRwz8GxaVM5rVUp5vVV2vFb4fHyTdzUH4	1	0	1	81	factor-from	3973139458	3967685710	234505
origination	lzep2_mutran_contract	KT19PYJa4YCTstNCWt1FfRTjavNcNovZgvgZ	32897133	23744736
mint	lzep2_mutran_contract	KT19PYJa4YCTstNCWt1FfRTjavNcNovZgvgZ	0	23744736	23744736	120880
transfer	lzep2_mutran_contract	KT19PYJa4YCTstNCWt1FfRTjavNcNovZgvgZ	1	0	1	91	factor-from	3967685710	3961560110	248130
origination	lzep2_mutran_contract	KT1BBC4SArQ9vy5okPGjJDoGbpQWdZM4JSV2	32896056	23743659
mint	lzep2_mutran_contract	KT1BBC4SArQ9vy5okPGjJDoGbpQWdZM4JSV2	0	23743659	23743659	120880
transfer	lzep2_mutran_contract	KT1BBC4SArQ9vy5okPGjJDoGbpQWdZM4JSV2	1	0	1	101	factor-from	3961560110	3954762657	261754
origination	lzep2_mutran_contract	KT1NKCZAXSmn2kEjU8oNiZqTHEu8Ft9XcGYF	32896541	23744144
mint	lzep2_mutran_contract	KT1NKCZAXSmn2kEjU8oNiZqTHEu8Ft9XcGYF	0	23744144	23744144	120880
transfer	lzep2_mutran_contract	KT1NKCZAXSmn2kEjU8oNiZqTHEu8Ft9XcGYF	1	0	1	111	factor-from	3954762657	3947293352	275379
origination	lzep2_mutran_contract	KT1RuCYv5WB2hY7Cu7NmNUiX2NksykupNYzz	32896323	23743926
mint	lzep2_mutran_contract	KT1RuCYv5WB2hY7Cu7NmNUiX2NksykupNYzz	0	23743926	23743926	120880
transfer	lzep2_mutran_contract	KT1RuCYv5WB2hY7Cu7NmNUiX2NksykupNYzz	1	0	1	121	factor-from	3947293352	3939152194	289003
origination	lzep2_mutran_contract	KT1WSjMTna2cNKezPwTVgcpeKsVhmMiPtxhA	32896421	23744024
mint	lzep2_mutran_contract	KT1WSjMTna2cNKezPwTVgcpeKsVhmMiPtxhA	0	23744024	23744024	120880
transfer	lzep2_mutran_contract	KT1WSjMTna2cNKezPwTVgcpeKsVhmMiPtxhA	1	0	1	131	factor-from	3939152194	3930339184	302628
origination	lzep2_mutran_contract	KT1C8xsUwEPgiwr8XxJfVtwJsdvdWaKoQeh5	32896377	23743980
mint	lzep2_mutran_contract	KT1C8xsUwEPgiwr8XxJfVtwJsdvdWaKoQeh5	0	23743980	23743980	120880
transfer	lzep2_mutran_contract	KT1C8xsUwEPgiwr8XxJfVtwJsdvdWaKoQeh5	1	0	1	141	factor-from	3930339184	3920854321	316254
origination	lzep2_mutran_contract	KT1Pg7mqZVdh8hvGfD8vYfMkS8H3yghywuCi	32896397	23744000
mint	lzep2_mutran_contract	KT1Pg7mqZVdh8hvGfD8vYfMkS8H3yghywuCi	0	23744000	23744000	120880
transfer	lzep2_mutran_contract	KT1Pg7mqZVdh8hvGfD8vYfMkS8H3yghywuCi	1	0	1	151	factor-from	3920854321	3910697606	329880
origination	lzep2_mutran_contract	KT1GUJCLyfD8gY6auJyCLUToKJVov8yn4ViY	32896388	23743991
mint	lzep2_mutran_contract	KT1GUJCLyfD8gY6auJyCLUToKJVov8yn4ViY	0	23743991	23743991	120880
transfer	lzep2_mutran_contract	KT1GUJCLyfD8gY6auJyCLUToKJVov8yn4ViY	1	0	1	161	factor-from	3910697606	3899869038	343506
origination	lzep2_mutran_contract	KT1NkNLuZDfZMHmNhRsMR9ajCxzhAucp7MB1	32896392	23743995
mint	lzep2_mutran_contract	KT1NkNLuZDfZMHmNhRsMR9ajCxzhAucp7MB1	0	23743995	23743995	120880
transfer	lzep2_mutran_contract	KT1NkNLuZDfZMHmNhRsMR9ajCxzhAucp7MB1	1	0	1	171	factor-from	3899869038	3888368617	357131
origination	lzep2_mutran_contract	KT1CwqMqb7tU9ZdS8bKRRdWDKrQfX2Hbm9xc	32896390	23743993
mint	lzep2_mutran_contract	KT1CwqMqb7tU9ZdS8bKRRdWDKrQfX2Hbm9xc	0	23743993	23743993	120880
transfer	lzep2_mutran_contract	KT1CwqMqb7tU9ZdS8bKRRdWDKrQfX2Hbm9xc	1	0	1	181	factor-from	3888368617	3876196344	370757
origination	lzep2_mutran_contract	KT1USTNJrgEcs87oKtrBcx6wwy3dJUgpmtNN	32896391	23743994
mint	lzep2_mutran_contract	KT1USTNJrgEcs87oKtrBcx6wwy3dJUgpmtNN	0	23743994	23743994	120880
transfer	lzep2_mutran_contract	KT1USTNJrgEcs87oKtrBcx6wwy3dJUgpmtNN	1	0	1	191	factor-from	3876196344	3863352218	384383
origination	lzep2_mutran_contract	KT1LFJGY6rVbphdPv6f2n8e7dQxJk24cNfhF	32896390	23743993
mint	lzep2_mutran_contract	KT1LFJGY6rVbphdPv6f2n8e7dQxJk24cNfhF	0	23743993	23743993	120880
transfer	lzep2_mutran_contract	KT1LFJGY6rVbphdPv6f2n8e7dQxJk24cNfhF	1	0	1	201	factor-from	3863352218	3849836240	398009
origination	lzep2_mutran_contract	KT1Wg85V1rEt7AvSUsDkTvHPi2U69qKcpHaA	32896391	23743994
mint	lzep2_mutran_contract	KT1Wg85V1rEt7AvSUsDkTvHPi2U69qKcpHaA	0	23743994	23743994	120880
transfer	lzep2_mutran_contract	KT1Wg85V1rEt7AvSUsDkTvHPi2U69qKcpHaA	1	0	1	211	factor-from	3849836240	3835648409	411635
origination	lzep2_mutran_contract	KT1BYQUfYcL5D4xmSTbbdeLLwdT8jpvPNtCh	32896390	23743993
mint	lzep2_mutran_contract	KT1BYQUfYcL5D4xmSTbbdeLLwdT8jpvPNtCh	0	23743993	23743993	120880
transfer	lzep2_mutran_contract	KT1BYQUfYcL5D4xmSTbbdeLLwdT8jpvPNtCh	1	0	1	221	factor-from	3835648409	3820788726	425260
origination	lzep2_mutran_contract	KT1AtX3x5QkexupYtubg9YT52y8u61eSQxRA	32896391	23743994
mint	lzep2_mutran_contract	KT1AtX3x5QkexupYtubg9YT52y8u61eSQxRA	0	23743994	23743994	120880
transfer	lzep2_mutran_contract	KT1AtX3x5QkexupYtubg9YT52y8u61eSQxRA	1	0	1	231	factor-from	3820788726	3805257190	438886
origination	lzep2_mutran_contract	KT1GhsMtPu5F56AXvx3qF1c8UR9pmS8FgwWH	32896390	23743993
mint	lzep2_mutran_contract	KT1GhsMtPu5F56AXvx3qF1c8UR9pmS8FgwWH	0	23743993	23743993	120880
transfer	lzep2_mutran_contract	KT1GhsMtPu5F56AXvx3qF1c8UR9pmS8FgwWH	1	0	1	241	factor-from	3805257190	3789053801	452512
origination	lzep2_mutran_contract	KT1ANqwvi4uaKYEMqyLbFn2ZAsTxc5iR3pj5	32896391	23743994
mint	lzep2_mutran_contract	KT1ANqwvi4uaKYEMqyLbFn2ZAsTxc5iR3pj5	0	23743994	23743994	120880
transfer	lzep2_mutran_contract	KT1ANqwvi4uaKYEMqyLbFn2ZAsTxc5iR3pj5	1	0	1	251	factor-from	3789053801	3772178559	466138
origination	lzep2_mutran_contract	KT1X9RnjbuZyiJsrDdZpxuVaATcfe3mWsAun	32896390	23743993
mint	lzep2_mutran_contract	KT1X9RnjbuZyiJsrDdZpxuVaATcfe3mWsAun	0	23743993	23743993	120880
transfer	lzep2_mutran_contract	KT1X9RnjbuZyiJsrDdZpxuVaATcfe3mWsAun	1	0	1	261	factor-from	3772178559	3754631464	479764
origination	lzep2_mutran_contract	KT1P4LBoyUwc88frTNdYrCEiXqA3xRoUjHMg	32896391	23743994
mint	lzep2_mutran_contract	KT1P4LBoyUwc88frTNdYrCEiXqA3xRoUjHMg	0	23743994	23743994	120880
transfer	lzep2_mutran_contract	KT1P4LBoyUwc88frTNdYrCEiXqA3xRoUjHMg	1	0	1	271	factor-from	3754631464	3736412516	493391
origination	lzep2_mutran_contract	KT1H3BkUgi8StuX7wJCJQhSwpwCWqPo6XEjt	32896391	23743993
mint	lzep2_mutran_contract	KT1H3BkUgi8StuX7wJCJQhSwpwCWqPo6XEjt	0	23743993	23743993	120880
transfer	lzep2_mutran_contract	KT1H3BkUgi8StuX7wJCJQhSwpwCWqPo6XEjt	1	0	1	281	factor-from	3736412516	3717521716	507018
origination	lzep2_mutran_contract	KT1LoUWYX7iLn8XBvoDDHvbUVkemJTZxQncW	32896391	23743993
mint	lzep2_mutran_contract	KT1LoUWYX7iLn8XBvoDDHvbUVkemJTZxQncW	0	23743993	23743993	120880
transfer	lzep2_mutran_contract	KT1LoUWYX7iLn8XBvoDDHvbUVkemJTZxQncW	1	0	1	291	factor-from	3717521716	3697959063	520645
origination	lzep2_mutran_contract	KT1B6G2pgLyW4S27gVsMNknByqLKihLnoPfL	32896391	23743993
mint	lzep2_mutran_contract	KT1B6G2pgLyW4S27gVsMNknByqLKihLnoPfL	0	23743993	23743993	120880
transfer	lzep2_mutran_contract	KT1B6G2pgLyW4S27gVsMNknByqLKihLnoPfL	1	0	1	301	factor-from	3697959063	3677724557	534272
origination	lzep2_mutran_contract	KT1HV1DAV7bmyKJqa2MxWcAMz3Rjo7LPfsyS	32896391	23743993
mint	lzep2_mutran_contract	KT1HV1DAV7bmyKJqa2MxWcAMz3Rjo7LPfsyS	0	23743993	23743993	120880
transfer	lzep2_mutran_contract	KT1HV1DAV7bmyKJqa2MxWcAMz3Rjo7LPfsyS	1	0	1	311	factor-from	3677724557	3656818199	547899
origination	lzep2_mutran_contract	KT1SZFjz3ZzmF24bRxbMVvXRjzqo2DrVxCgo	32896391	23743993
mint	lzep2_mutran_contract	KT1SZFjz3ZzmF24bRxbMVvXRjzqo2DrVxCgo	0	23743993	23743993	120880
transfer	lzep2_mutran_contract	KT1SZFjz3ZzmF24bRxbMVvXRjzqo2DrVxCgo	1	0	1	321	factor-from	3656818199	3635239988	561526
origination	lzep2_mutran_contract	KT1RqAQuFFDr9BCVQHDRN4Pd155vG18bCwtJ	32896391	23743993
mint	lzep2_mutran_contract	KT1RqAQuFFDr9BCVQHDRN4Pd155vG18bCwtJ	0	23743993	23743993	120880
failed-transfer	lzep2_mutran_contract	KT1RqAQuFFDr9BCVQHDRN4Pd155vG18bCwtJ	1	0	1	331	factor-from	oversized-operation
origination	lzep2_mutran_contract	KT1Co16xSttngbQhJqiC9mCC6Akb9PtWPTV3	32896391	23743993
mint	lzep2_mutran_contract	KT1Co16xSttngbQhJqiC9mCC6Akb9PtWPTV3	0	23743993	23743993	120880
failed-transfer	lzep2_mutran_contract	KT1Co16xSttngbQhJqiC9mCC6Akb9PtWPTV3	1	0	1	341	factor-from	oversized-operation
