failed-transfer:kind	flavor:string	address:string	ith:int	operators-nb:int	tokens-nb:int	batch-size:int	batching-style:string	error:string
transfer:kind	flavor:string	address:string	ith:int	operators-nb:int	tokens-nb:int	batch-size:int	batching-style:string	balance-before:int	balance-after:int	consumed-gas:int
add-operators:kind	flavor:string	address:string	operators:int	balance-before:int	balance-after:int	consumed-gas:int
mint:kind	flavor:string	address:string	token-id:int	balance-before:int	balance-after:int	consumed-gas:int
origination:kind	flavor:string	address:string	balance-before:int	balance-after:int
